{
  "project_info": {
    "project_number": "946034262624",
    "project_id": "gpsteam-dd351",
    "storage_bucket": "gpsteam-dd351.appspot.com"
  },
  "client": [
    {
      "client_info": {
        "mobilesdk_app_id": "1:946034262624:android:51c7394fe03cc6a869f905",
        "android_client_info": {
          "package_name": "com.soda365gps"
        }
      },
      "oauth_client": [
        {
          "client_id": "946034262624-nentt4iqjp2gat5eli077su9269ke0s2.apps.googleusercontent.com",
          "client_type": 1,
          "android_info": {
            "package_name": "com.soda365gps",
            "certificate_hash": "749e019e60d33a5128fb1b16e9da7a26098b19e3"
          }
        },
        {
          "client_id": "946034262624-9rqlb9nju407fb7dmkp7ifgdhafr8uaf.apps.googleusercontent.com",
          "client_type": 3
        }
      ],
      "api_key": [
        {
          "current_key": "AIzaSyDPjMz4rlPYapMC9W9HcZzqEHFl16IT_Qo"
        }
      ],
      "services": {
        "appinvite_service": {
          "other_platform_oauth_client": [
            {
              "client_id": "946034262624-9rqlb9nju407fb7dmkp7ifgdhafr8uaf.apps.googleusercontent.com",
              "client_type": 3
            }
          ]
        }
      }
    }
  ],
  "configuration_version": "1"
}